<?xml version="1.0" encoding="UTF-8"?>
<svg width="30px" height="25px" viewBox="0 0 30 25" version="1.1" xmlns="http://www.w3.org/2000/svg" xmlns:xlink="http://www.w3.org/1999/xlink">
  <title>Twitter</title>
  <g stroke="none" stroke-width="1" fill="none" fill-rule="evenodd">
    <path d="M26.94897,6.86953009 C26.94897,15.0006732 20.7593914,24.3772721 9.4358422,24.3772721 C5.95933755,24.3772721 2.72384543,23.3634038 0,21.6116871 C0.483371482,21.669584 0.97212872,21.700552 1.46761815,21.700552 C4.35438266,21.700552 7.0055204,20.7176518 9.11404336,19.0655716 C6.42116602,19.0130605 4.14972398,17.2357614 3.36609667,14.7892823 C3.73906019,14.8633365 4.12279521,14.8996903 4.52268749,14.8996903 C5.0801131,14.8996903 5.6267672,14.8269826 6.14245321,14.6842601 C3.32839639,14.1214488 1.20371617,11.6345765 1.20371617,8.65221489 C1.20371617,8.62528612 1.20371617,8.59970378 1.20910193,8.57277501 C2.03446883,9.03594991 2.98774741,9.30927696 3.99757641,9.34024505 C2.34549616,8.2415511 1.25622728,6.35384408 1.25622728,4.21839235 C1.25622728,3.09276962 1.56186886,2.03581527 2.08832638,1.12562273 C5.1218527,4.84987209 9.66204389,7.30039047 14.7731251,7.55756025 C14.6681029,7.10515686 14.6155918,6.63794264 14.6155918,6.15322472 C14.6155918,2.75615996 17.3717517,0 20.7701629,0 C22.5420762,0 24.1402989,0.747273462 25.2605359,1.94021812 C26.6648714,1.66689107 27.9857278,1.15659082 29.1746331,0.447017638 C28.7114582,1.88770701 27.737983,3.09276962 26.4655985,3.85485391 C27.7124007,3.7080921 28.901306,3.37686818 30,2.88811095 C29.1800189,4.11875589 28.1324896,5.20129258 26.9341591,6.06974552 C26.9435842,6.33230106 26.94897,6.60024236 26.94897,6.86953009 Z" fill="currentColor"></path>
  </g>
</svg>
