<?xml version="1.0" encoding="UTF-8"?>
<svg width="30px" height="30px" viewBox="0 0 30 30" version="1.1" xmlns="http://www.w3.org/2000/svg" xmlns:xlink="http://www.w3.org/1999/xlink">
    <!-- Generator: Sketch 58 (84663) - https://sketch.com -->
    <title>Path</title>
    <desc>Created with Sketch.</desc>
    <g id="Final" stroke="none" stroke-width="1" fill="none" fill-rule="evenodd">
        <g id="InnerPage" transform="translate(-949.000000, -5948.000000)" fill="#FFFFFF" fill-rule="nonzero">
            <g id="Group-7-Copy" transform="translate(0.000000, 5768.000000)">
                <g id="Group-4" transform="translate(818.000000, 180.000000)">
                    <path d="M156.605469,0 L135.394531,0 C132.971588,0 131,1.97158816 131,4.39453125 L131,25.6054688 C131,28.0284118 132.971588,30 135.394531,30 L144.242188,30 L144.242188,19.3945312 L140.726562,19.3945312 L140.726562,14.1210938 L144.242188,14.1210938 L144.242188,10.546875 C144.242188,7.63893129 146.607681,5.2734375 149.515625,5.2734375 L154.847656,5.2734375 L154.847656,10.546875 L149.515625,10.546875 L149.515625,14.1210938 L154.847656,14.1210938 L153.96875,19.3945312 L149.515625,19.3945312 L149.515625,30 L156.605469,30 C159.028412,30 161,28.0284118 161,25.6054688 L161,4.39453125 C161,1.97158816 159.028412,0 156.605469,0 Z" id="Path"></path>
                </g>
            </g>
        </g>
    </g>
</svg>
